[Bootstrap]
SetupTitle=Install
SetupText=Copying Files, please stand by.
CabFile=IRIS.CAB
Spawn=Setup1.exe
Uninstal=st6unst.exe
TmpDir=msftqws.pdw
Cabs=1

[Bootstrap Files]
File1=@VB6STKIT.DLL,$(WinSysPathSysFile),,,6-18-98 1:00:00 AM,102912,6.0.81.69
File2=@MSVCRT40.DLL,$(WinSysPathSysFile),,,5-31-98 1:00:00 AM,326656,4.21.0.0
File3=@olepro32.dll,$(WinSysPathSysFile),$(DLLSelfRegister),,4-14-08 5:42:04 AM,84992,5.1.2600.5512
File4=@COMCAT.DLL,$(WinSysPathSysFile),$(DLLSelfRegister),,5-31-98 1:00:00 AM,22288,4.71.1460.1
File5=@stdole2.tlb,$(WinSysPathSysFile),$(TLBRegister),,4-13-08 9:12:08 PM,16896,5.1.2600.5512
File6=@asycfilt.dll,$(WinSysPathSysFile),,,4-14-08 5:41:50 AM,65024,5.1.2600.5512
File7=@oleaut32.dll,$(WinSysPathSysFile),$(DLLSelfRegister),,4-14-08 5:42:04 AM,551936,5.1.2600.5512
File8=@msvbvm60.dll,$(WinSysPathSysFile),$(DLLSelfRegister),,4-14-08 5:42:02 AM,1384479,6.0.98.2

[IconGroups]
Group0=Roleplaying
PrivateGroup0=False
Parent0=$(Programs)

[Roleplaying]
Icon1="IRIS.exe"
Title1=IRIS
StartIn1=$(AppPath)

[Setup]
Title=IRIS
DefaultDir=$(ProgramFiles)\IRIS
AppExe=IRIS.exe
AppToUninstall=IRIS.exe

[Setup1 Files]
File1=@Critical Chart Editor.exe,$(AppPath),,,1-1-02 7:44:31 PM,86016,1.0.0.0
File2=@Cold.prism,$(AppPath),,,6-8-03 6:09:32 PM,13253,0.0.0.0
File3=@Sweeps.prism,$(AppPath)\Charts,,,8-27-00 10:18:02 PM,11729,0.0.0.0
File4=@Stunner.prism,$(AppPath)\Charts,,,8-19-01 9:58:35 PM,8708,0.0.0.0
File5=@Strikes.prism,$(AppPath)\Charts,,,8-27-00 10:19:32 PM,11678,0.0.0.0
File6=@Slash.prism,$(AppPath)\Charts,,,4-23-00 2:29:12 PM,12850,0.0.0.0
File7=@Puncture.prism,$(AppPath)\Charts,,,4-23-00 1:45:28 PM,12446,0.0.0.0
File8=@Nerve Strikes.prism,$(AppPath)\Charts,,,2-15-02 9:13:04 PM,13289,0.0.0.0
File9=@Locking Holds.prism,$(AppPath)\Charts,,,2-10-02 2:33:25 PM,13906,0.0.0.0
File10=@Heat.prism,$(AppPath)\Charts,,,1-1-02 10:19:55 PM,13704,0.0.0.0
File11=@Grapple.prism,$(AppPath)\Charts,,,7-21-02 8:20:07 AM,11915,0.0.0.0
File12=@Electricity.prism,$(AppPath)\Charts,,,8-20-01 9:27:24 PM,13684,0.0.0.0
File13=@Crush.prism,$(AppPath)\Charts,,,4-23-00 11:29:52 AM,12932,0.0.0.0
File14=@Ballistic Puncture.prism,$(AppPath)\Charts,,,1-1-02 7:23:41 PM,13400,0.0.0.0
File15=@IRIS.HLP,$(AppPath),,,9-30-97 2:08:12 PM,130284,0.0.0.0
File16=@MSSTDFMT.DLL,$(WinSysPath),$(DLLSelfRegister),$(Shared),7-15-00 1:00:00 AM,118784,6.0.88.4
File17=@MFC40.DLL,$(WinSysPathSysFile),$(DLLSelfRegister),,4-24-98 1:00:00 AM,921872,4.1.0.6038
File18=@GAUGE32.OCX,$(WinSysPath),$(DLLSelfRegister),$(Shared),7-25-95 8:00:00 PM,63488,1.0.24.0
File19=@MCI32.OCX,$(WinSysPath),$(DLLSelfRegister),$(Shared),6-24-98 1:00:00 AM,198456,6.0.81.69
File20=@SPIN32.OCX,$(WinSysPath),$(DLLSelfRegister),$(Shared),5-1-97 12:42:54 PM,52736,1.0.0.44
File21=@Vb5db.dll,$(WinSysPath),,$(Shared),6-18-98 1:00:00 AM,89360,6.0.81.69
File22=@Msrepl35.dll,$(WinSysPathSysFile),,,6-18-99 1:07:30 AM,415504,3.51.3007.1
File23=@Msrd2x35.dll,$(WinSysPathSysFile),$(DLLSelfRegister),,6-23-97 2:06:50 AM,252176,3.51.623.0
File24=@expsrv.dll,$(WinSysPathSysFile),,,4-14-08 5:41:54 AM,380445,6.0.72.9590
File25=@vbajet32.dll,$(WinSysPathSysFile),,,4-14-08 5:42:10 AM,30749,6.0.1.9432
File26=@Msjint35.dll,$(WinSysPathSysFile),,,6-23-97 2:06:50 AM,123664,3.51.623.0
File27=@Msjter35.dll,$(WinSysPathSysFile),,,6-23-97 2:06:50 AM,24848,3.51.623.0
File28=@Msjet35.dll,$(WinSysPathSysFile),$(DLLSelfRegister),,8-4-99 8:17:18 PM,1050384,3.51.3203.0
File29=@DAO350.DLL,$(MSDAOPath),$(DLLSelfRegister),$(Shared),4-27-98 12:00:00 AM,570128,3.51.1608.0
File30=@DBGRID32.OCX,$(WinSysPath),$(DLLSelfRegister),$(Shared),9-19-01 11:37:56 AM,525352,5.1.81.4
File31=@DBLIST32.OCX,$(WinSysPath),$(DLLSelfRegister),$(Shared),5-22-00 10:21:32 AM,200496,6.0.81.69
File32=@comctl32.ocx,$(WinSysPath),$(DLLSelfRegister),$(Shared),5-22-00 1:00:00 AM,608448,6.0.81.5
File33=@RICHED32.DLL,$(WinSysPathSysFile),,,5-7-98 1:00:00 AM,174352,4.0.993.4
File34=@RICHTX32.OCX,$(WinSysPath),$(DLLSelfRegister),$(Shared),3-9-04 1:00:00 AM,212240,6.1.97.82
File35=@tabctl32.ocx,$(WinSysPath),$(DLLSelfRegister),$(Shared),12-6-00 2:02:36 PM,209608,6.0.90.43
File36=@comdlg32.ocx,$(WinSysPath),$(DLLSelfRegister),$(Shared),3-9-04 1:00:00 AM,152848,6.1.97.82
File37=@IRIS.exe,$(AppPath),,,1-1-09 5:47:26 PM,655360,1.7.0.4

; The following lines may be deleted in order to obtain extra 
; space for customizing this file on a full installation diskette.
; 
; XXXXXXXXXXXXXXXXXXXXXXXXXXXXXXXXXXXXXXXXXXXXXXXXXXXXXXXXXXXX
; XXXXXXXXXXXXXXXXXXXXXXXXXXXXXXXXXXXXXXXXXXXXXXXXXXXXXXXXXXXX
; XXXXXXXXXXXXXXXXXXXXXXXXXXXXXXXXXXXXXXXXXXXXXXXXXXXXXXXXXXXX
; XXXXXXXXXXXXXXXXXXXXXXXXXXXXXXXXXXXXXXXXXXXXXXXXXXXXXXXXXXXX
; XXXXXXXXXXXXXXXXXXXXXXXXXXXXXXXXXXXXXXXXXXXXXXXXXXXXXXXXXXXX
; XXXXXXXXXXXXXXXXXXXXXXXXXXXXXXXXXXXXXXXXXXXXXXXXXXXXXXXXXXXX
; XXXXXXXXXXXXXXXXXXXXXXXXXXXXXXXXXXXXXXXXXXXXXXXXXXXXXXXXXXXX
; XXXXXXXXXXXXXXXXXXXXXXXXXXXXXXXXXXXXXXXXXXXXXXXXXXXXXXXXXXXX
; XXXXXXXXXXXXXXXXXXXXXXXXXXXXXXXXXXXXXXXXXXXXXXXXXXXXXXXXXXXX
; XXXXXXXXXXXXXXXXXXXXXXXXXXXXXXXXXXXXXXXXXXXXXXXXXXXXXXXXXXXX
; XXXXXXXXXXXXXXXXXXXXXXXXXXXXXXXXXXXXXXXXXXXXXXXXXXXXXXXXXXXX
; XXXXXXXXXXXXXXXXXXXXXXXXXXXXXXXXXXXXXXXXXXXXXXXXXXXXXXXXXXXX
; XXXXXXXXXXXXXXXXXXXXXXXXXXXXXXXXXXXXXXXXXXXXXXXXXXXXXXXXXXXX
; XXXXXXXXXXXXXXXXXXXXXXXXXXXXXXXXXXXXXXXXXXXXXXXXXXXXXXXXXXXX
; XXXXXXXXXXXXXXXXXXXXXXXXXXXXXXXXXXXXXXXXXXXXXXXXXXXXXXXXXXXX
; XXXXXXXXXXXXXXXXXXXXXXXXXXXXXXXXXXXXXXXXXXXXXXXXXXXXXXXXXXXX
; XXXXXXXXXXXXXXXXXXXXXXXXXXXXXXXXXXXXXXXXXXXXXXXXXXXXXXXXXXXX
; XXXXXXXXXXXXXXXXXXXXXXXXXXXXXXXXXXXXXXXXXXXXXXXXXXXXXXXXXXXX
; XXXXXXXXXXXXXXXXXXXXXXXXXXXXXXXXXXXXXXXXXXXXXXXXXXXXXXXXXXXX
; XXXXXXXXXXXXXXXXXXXXXXXXXXXXXXXXXXXXXXXXXXXXXXXXXXXXXXXXXXXX
; XXXXXXXXXXXXXXXXXXXXXXXXXXXXXXXXXXXXXXXXXXXXXXXXXXXXXXXXXXXX
; XXXXXXXXXXXXXXXXXXXXXXXXXXXXXXXXXXXXXXXXXXXXXXXXXXXXXXXXXXXX
; XXXXXXXXXXXXXXXXXXXXXXXXXXXXXXXXXXXXXXXXXXXXXXXXXXXXXXXXXXXX
; XXXXXXXXXXXXXXXXXXXXXXXXXXXXXXXXXXXXXXXXXXXXXXXXXXXXXXXXXXXX
; XXXXXXXXXXXXXXXXXXXXXXXXXXXXXXXXXXXXXXXXXXXXXXXXXXXXXXXXXXXX
; XXXXXXXXXXXXXXXXXXXXXXXXXXXXXXXXXXXXXXXXXXXXXXXXXXXXXXXXXXXX
; XXXXXXXXXXXXXXXXXXXXXXXXXXXXXXXXXXXXXXXXXXXXXXXXXXXXXXXXXXXX
; XXXXXXXXXXXXXXXXXXXXXXXXXXXXXXXXXXXXXXXXXXXXXXXXXXXXXXXXXXXX
; XXXXXXXXXXXXXXXXXXXXXXXXXXXXXXXXXXXXXXXXXXXXXXXXXXXXXXXXXXXX
; XXXXXXXXXXXXXXXXXXXXXXXXXXXXXXXXXXXXXXXXXXXXXXXXXXXXXXXXXXXX
; XXXXXXXXXXXXXXXXXXXXXXXXXXXXXXXXXXXXXXXXXXXXXXXXXXXXXXXXXXXX
; XXXXXXXXXXXXXXXXXXXXXXXXXXXXXXXXXXXXXXXXXXXXXXXXXXXXXXXXXXXX
; XXXXXXXXXXXXXXXXXXXXXXXXXXXXXXXXXXXXXXXXXXXXXXXXXXXXXXXXXXXX
; XXXXXXXXXXXXXXXXXXXXXXXXXXXXXXXXXXXXXXXXXXXXXXXXXXXXXXXXXXXX
; XXXXXXXXXXXXXXXXXXXXXXXXXXXXXXXXXXXXXXXXXXXXXXXXXXXXXXXXXXXX
